net/bluemix/todo/model/CloudantRow.class
net/bluemix/todo/model/CloudantReducedRow.class
net/bluemix/todo/model/ToDo.class
net/bluemix/todo/store/ToDoStoreException.class
net/bluemix/todo/model/CloudantPostResponse.class
net/bluemix/todo/connector/CloudantServiceInfo.class
net/bluemix/todo/rest/ToDoAPI.class
net/bluemix/todo/store/InMemoryStore.class
net/bluemix/todo/store/Cleanup.class
net/bluemix/todo/store/MongoStore.class
net/bluemix/todo/model/CloudantCount.class
net/bluemix/todo/store/CloudantStore.class
net/bluemix/todo/store/ToDoStore.class
net/bluemix/todo/model/CloudantAllDocs.class
net/bluemix/todo/connector/CloudantServiceInfoCreator.class
net/bluemix/todo/model/CloudantToDo.class
net/bluemix/todo/store/ToDoStoreFactory.class
