net/bluemix/todo/model/CloudantRowTest.class
net/bluemix/todo/store/MongoStoreTest$1.class
net/bluemix/todo/model/ToDoTest.class
net/bluemix/todo/store/MongoStoreTest$3.class
net/bluemix/todo/model/CloudantToDoTest.class
net/bluemix/todo/model/CloudantCountTest.class
net/bluemix/todo/store/MongoStoreTest$4.class
net/bluemix/todo/store/MongoStoreTest.class
net/bluemix/todo/store/MongoStoreTest$5.class
net/bluemix/todo/model/CloudantPostResponseTest.class
net/bluemix/todo/rest/ToDoAPITest$1.class
net/bluemix/todo/store/CloudantStoreTest.class
net/bluemix/todo/rest/ToDoAPITest.class
net/bluemix/todo/store/MongoStoreTest$6.class
net/bluemix/todo/model/CloudantReducedRowTest.class
net/bluemix/todo/store/InMemoryStoreTest.class
net/bluemix/todo/store/MongoStoreTest$7.class
net/bluemix/todo/model/CloudantAllDocsTest.class
net/bluemix/todo/store/MongoStoreTest$2.class
